{
  "name" : "infinet test",
  "version" : "0.0.1",
  "description" : "Test for infinet",

  "configs": {
    "directories": {
      "archive": "archive",
      "dist": "./www",
      "src": "./src"
    }
  }
}
